{
    "equipements" : {
        "id" :"3",
        "name" : "equipements",
        "maison" :{
            "id" :"1",
            "name" : "maison",
            "description" : "Liste des equipements pour la maison"
        },
        "deplacement" :{
            "id" :"2",
            "name" : "deplacement",
            "description" : "Liste des equipements pour usage exterieur"
        }
    }
}